<?xml version="1.0" encoding="utf-8"?>
<!-- Generator: Adobe Illustrator 24.0.3, SVG Export Plug-In . SVG Version: 6.00 Build 0)  -->
<svg version="1.1" id="Layer_1" xmlns="http://www.w3.org/2000/svg" xmlns:xlink="http://www.w3.org/1999/xlink" x="0px" y="0px"
	 viewBox="0 0 55 55" style="enable-background:new 0 0 55 55;" xml:space="preserve">
<path d="M23.59,34.13c-0.1-2.97-2.57-5.48-2.64-7.73c-0.05-1.62,1.34-3.19,1.34-3.19c0.89-0.67,1.35-2.05,2.22-3.44
	c0.95-1.54,1.79-3.25,2.64-3.78c0.71-0.44,2.08-0.96,3.28-0.38c1.66,0.82,2.41,3.69,1.27,3.76c-0.04,0.4-0.96,1.36-1.02,1.42
	c-0.14,0.13-0.22,0.46-0.27,0.77c-0.04,0.28-0.03,0.55-0.19,0.63c-0.14,0.07-0.36-0.13-0.51-0.07c-0.26,0.1-0.18,0.38-0.32,0.41
	c-0.14,0.03-0.17,0.22-0.34,0.31c-0.09,0.05-0.46,0.37-0.95,0.32c-0.44-0.05-0.91-0.51-1.14-1.07c-0.27,0.56-0.44,1.22-0.44,1.22
	s0.81,1.87,3.9,3.37c1.44,1.55,0.36,2.59,0.05,3.05c0.36,0.77,3.68,1.88,3.58,5.28c-0.09,3.06-2.15,3.4-2.97,4.47
	c-0.03,0.04-0.06,0.09-0.09,0.14h-7.86C23.35,38.3,23.66,36.24,23.59,34.13z"/>
</svg>
