<?xml version="1.0" encoding="utf-8"?>
<!-- Generator: Adobe Illustrator 24.0.3, SVG Export Plug-In . SVG Version: 6.00 Build 0)  -->
<svg version="1.1" id="Layer_1" xmlns="http://www.w3.org/2000/svg" xmlns:xlink="http://www.w3.org/1999/xlink" x="0px" y="0px"
	 viewBox="0 0 311.1 311.1" style="enable-background:new 0 0 311.1 311.1;" xml:space="preserve">
<g>
	<path d="M231.97,110.64c0-13.13-9.75-24-22.32-25.88v-3c0-2.63-2.06-4.69-4.69-4.69s-4.69,2.06-4.69,4.69v9.38
		c0,2.63,2.06,4.69,4.69,4.69s4.69-2.06,4.69-4.69v-2.06c10.13,1.88,17.82,10.69,18,21.38l-10.88,54.57l-1.5-0.75
		c-6.56,12.56-19.32,20.63-33.76,20.63l0,0c-14.44,0-27.19-8.06-33.57-20.82l-1.5,0.75l-10.88-54.39c0.19-10.69,7.88-19.5,18-21.38
		v2.06c0,2.63,2.06,4.69,4.69,4.69s4.69-2.06,4.69-4.69v-9.38c0-2.63-2.06-4.69-4.69-4.69s-4.69,2.06-4.69,4.69v2.81
		c-12.56,1.88-22.32,12.75-22.32,25.88l11.25,56.26l-2.81,1.5c7.31,14.82,21.57,24.38,37.88,25.88
		c-1.88,19.88-18.57,35.44-38.82,35.44c-21.57,0-39.01-17.44-39.01-39.01v-38.63c9.19-1.13,16.5-9,16.5-18.57
		c0-10.31-8.44-18.75-18.75-18.75s-18.75,8.44-18.75,18.75c0,9.56,7.13,17.44,16.5,18.57v38.44c0,24.19,19.69,43.7,43.7,43.7
		c22.88,0,41.63-17.63,43.51-39.95c17.82-0.19,33.57-10.13,41.45-26.07l-2.81-1.5l11.25-55.89L231.97,110.64z M87.76,133.33
		c0-5.25,4.13-9.38,9.38-9.38c5.25,0,9.38,4.13,9.38,9.38s-4.13,9.38-9.38,9.38C91.88,142.7,87.76,138.58,87.76,133.33z"/>
</g>
</svg>
